<svg width="50" height="50" viewBox="0 0 50 50" fill="#000" xmlns="http://www.w3.org/2000/svg">
<path d="M47.75 42.2266L40.5703 35.0469C40.2225 34.7162 39.7837 34.4971 39.3103 34.4178C38.837 34.3384 38.3507 34.4024 37.9141 34.6016L34.1094 30.7969C36.0347 28.0898 36.9396 24.7886 36.6636 21.4781C36.3876 18.1677 34.9486 15.0618 32.6016 12.7109C31.7327 11.8434 30.7528 11.0947 29.6875 10.4844C29.1761 9.36876 28.4317 8.3756 27.5044 7.57173C26.5771 6.76787 25.4883 6.17194 24.3114 5.82405C23.1345 5.47617 21.8968 5.38438 20.6814 5.55488C19.4661 5.72538 18.3014 6.15421 17.2656 6.81251C17.1692 6.8623 17.0842 6.93165 17.016 7.01613C16.9478 7.10062 16.898 7.19837 16.8697 7.30318C16.8415 7.40798 16.8353 7.51752 16.8517 7.62483C16.8682 7.73213 16.9068 7.83483 16.9651 7.92639C17.0234 8.01795 17.1001 8.09635 17.1904 8.15659C17.2807 8.21684 17.3826 8.2576 17.4895 8.27629C17.5964 8.29497 17.7061 8.29117 17.8115 8.26513C17.9169 8.23908 18.0157 8.19136 18.1016 8.12501C19.4911 7.24653 21.1446 6.88272 22.7745 7.09681C24.4045 7.31091 25.9079 8.08936 27.0234 9.29688C24.8203 8.58076 22.4744 8.41999 20.1942 8.82888C17.914 9.23776 15.7701 10.2036 13.9531 11.6406C13.7905 11.7691 13.6855 11.9569 13.6613 12.1628C13.6372 12.3686 13.6958 12.5756 13.8242 12.7383C13.9527 12.9009 14.1405 13.0059 14.3463 13.0301C14.5522 13.0542 14.7592 12.9957 14.9219 12.8672C16.8451 11.3539 19.1702 10.4384 21.6089 10.2342C24.0476 10.0301 26.4926 10.5463 28.6406 11.7188L28.7422 11.7656C30.446 12.7102 31.9054 14.04 33.004 15.6488C34.1026 17.2575 34.8099 19.1008 35.0696 21.0316C35.3293 22.9623 35.1342 24.927 34.4997 26.7689C33.8653 28.6108 32.8091 30.2789 31.4155 31.6401C30.0218 33.0013 28.3293 34.018 26.473 34.6089C24.6167 35.1999 22.648 35.3488 20.7239 35.0437C18.7998 34.7387 16.9737 33.9881 15.3912 32.852C13.8087 31.7158 12.5136 30.2255 11.6094 28.5L12.8359 27.4531C13.3674 28.5389 14.0719 29.531 14.9219 30.3906C16.2358 31.7025 17.862 32.6584 19.6473 33.1681C21.4327 33.6778 23.3185 33.7247 25.1269 33.3042C26.9354 32.8838 28.6071 32.0098 29.9845 30.7648C31.3619 29.5197 32.3996 27.9445 33 26.1875C33.0328 26.09 33.0461 25.9871 33.0392 25.8845C33.0322 25.7818 33.0051 25.6816 32.9594 25.5895C32.9137 25.4973 32.8503 25.4151 32.7728 25.3475C32.6953 25.2799 32.6053 25.2281 32.5078 25.1953C32.4103 25.1625 32.3074 25.1492 32.2048 25.1561C32.1021 25.1631 32.0019 25.1902 31.9098 25.2359C31.8176 25.2816 31.7354 25.345 31.6678 25.4225C31.6002 25.5 31.5485 25.59 31.5156 25.6875C31.0006 27.1928 30.1111 28.5422 28.9307 29.6088C27.7502 30.6754 26.3178 31.424 24.7682 31.7843C23.2187 32.1445 21.6029 32.1045 20.073 31.668C18.5432 31.2314 17.1496 30.4128 16.0234 29.2891C15.1977 28.4572 14.5329 27.4798 14.0625 26.4063L19.0469 22.1719C20.8372 22.801 22.7859 22.817 24.5863 22.2173C26.3867 21.6177 27.9367 20.4364 28.9922 18.8594C29.0507 18.7747 29.0919 18.6794 29.1135 18.5788C29.1352 18.4783 29.1368 18.3744 29.1183 18.2732C29.0998 18.172 29.0615 18.0754 29.0057 17.989C28.9499 17.9026 28.8776 17.828 28.793 17.7695C28.7083 17.7111 28.613 17.6698 28.5124 17.6482C28.4118 17.6265 28.308 17.6249 28.2068 17.6434C28.1056 17.6619 28.009 17.7002 27.9226 17.756C27.8362 17.8118 27.7616 17.8841 27.7031 17.9688C27.0624 18.9277 26.1957 19.7142 25.1794 20.2592C24.163 20.8042 23.0282 21.0908 21.875 21.0938C21.4107 21.0903 20.9477 21.0432 20.4922 20.9531L22.3828 19.3438C22.4608 19.2771 22.5249 19.1957 22.5714 19.1042C22.6179 19.0128 22.6459 18.9131 22.6539 18.8108C22.6619 18.7085 22.6497 18.6056 22.6179 18.5081C22.5861 18.4105 22.5354 18.3202 22.4687 18.2422C22.4021 18.1642 22.3207 18.1001 22.2292 18.0536C22.1378 18.0071 22.0381 17.9791 21.9358 17.9711C21.8335 17.9631 21.7306 17.9753 21.6331 18.0071C21.5355 18.0389 21.4452 18.0896 21.3672 18.1563L18.75 20.3672C17.2231 19.6051 16.022 18.3181 15.3672 16.7422C15.5703 16.4922 15.7812 16.2578 16.0078 16.0234C17.3293 14.6933 19.0192 13.7899 20.8593 13.4301C22.6994 13.0702 24.6051 13.2704 26.3303 14.0047C28.0555 14.739 29.5209 15.9737 30.5371 17.5494C31.5534 19.1251 32.0738 20.9693 32.0312 22.8438C32.0312 23.051 32.1136 23.2497 32.2601 23.3962C32.4066 23.5427 32.6053 23.625 32.8125 23.625C33.0197 23.625 33.2184 23.5427 33.3649 23.3962C33.5114 23.2497 33.5937 23.051 33.5937 22.8438C33.6318 21.2553 33.3233 19.6776 32.6897 18.2204C32.0561 16.7633 31.1126 15.4617 29.9249 14.4062C28.7372 13.3507 27.3338 12.5667 25.8123 12.1086C24.2908 11.6506 22.6878 11.5296 21.1148 11.754C19.5418 11.9783 18.0366 12.5428 16.7038 13.408C15.3711 14.2731 14.2429 15.4183 13.3977 16.7638C12.5525 18.1093 12.0106 19.6228 11.8097 21.1989C11.6088 22.7751 11.7537 24.3761 12.2344 25.8906L10.9375 27.0078C10.1928 24.9988 9.97699 22.8321 10.3108 20.7157C10.6446 18.5992 11.5168 16.6041 12.8438 14.9219C12.9722 14.7592 13.0308 14.5522 13.0066 14.3464C12.9825 14.1405 12.8775 13.9527 12.7148 13.8242C12.5522 13.6958 12.3452 13.6372 12.1393 13.6613C11.9335 13.6855 11.7457 13.7905 11.6172 13.9531C10.0659 15.9219 9.06903 18.2695 8.72975 20.753C8.39048 23.2364 8.72114 25.7654 9.6875 28.0781L5.74219 31.4375C5.65643 31.5109 5.58759 31.6019 5.54038 31.7044C5.49318 31.8069 5.46874 31.9184 5.46875 32.0313V39.8438C5.46875 40.051 5.55106 40.2497 5.69757 40.3962C5.84409 40.5427 6.0428 40.625 6.25 40.625C6.4572 40.625 6.65591 40.5427 6.80243 40.3962C6.94894 40.2497 7.03125 40.051 7.03125 39.8438V32.3906L10.3906 29.5391C11.0289 30.6618 11.8175 31.6921 12.7344 32.6016C15.0848 34.9466 18.1891 36.3843 21.4978 36.6603C24.8065 36.9363 28.1061 36.0326 30.8125 34.1094L34.6172 37.9063C34.4085 38.3428 34.34 38.8332 34.4211 39.3102C34.5023 39.7872 34.729 40.2273 35.0703 40.5703L42.25 47.75C42.6895 48.1889 43.2852 48.4354 43.9062 48.4354C44.5273 48.4354 45.123 48.1889 45.5625 47.75L47.7734 45.5391C48.2092 45.0965 48.4516 44.4991 48.4472 43.878C48.4428 43.2569 48.192 42.6629 47.75 42.2266ZM14.3828 18.25C15.1223 19.5737 16.2009 20.6765 17.5078 21.4453L13.5625 24.8047C13.0316 22.5926 13.3232 20.263 14.3828 18.25ZM32.6016 32.6016C32.7891 32.4141 32.9531 32.2109 33.125 32.0156L36.7187 35.5938L35.5937 36.7188L32.0312 33.125C32.2109 32.9531 32.4141 32.8125 32.6016 32.6016ZM46.6641 44.4375L44.4531 46.6484C44.3805 46.7217 44.2941 46.7798 44.1989 46.8194C44.1037 46.8591 44.0016 46.8795 43.8984 46.8795C43.7953 46.8795 43.6932 46.8591 43.598 46.8194C43.5028 46.7798 43.4164 46.7217 43.3437 46.6484L36.1641 39.4609C36.0197 39.3154 35.9384 39.119 35.9375 38.9141C35.9369 38.8112 35.9566 38.7093 35.9955 38.6141C36.0344 38.519 36.0917 38.4324 36.1641 38.3594L38.375 36.1484C38.448 36.076 38.5346 36.0187 38.6298 35.9799C38.7249 35.941 38.8269 35.9213 38.9297 35.9219C39.1346 35.9227 39.331 36.0041 39.4766 36.1484L46.6641 43.3281C46.7363 43.4018 46.7932 43.489 46.8315 43.5848C46.8698 43.6805 46.8888 43.7829 46.8874 43.8861C46.8859 43.9892 46.8641 44.091 46.823 44.1857C46.782 44.2803 46.7227 44.3659 46.6484 44.4375H46.6641Z"/>
<path d="M17.6874 25C17.4802 25 17.2815 25.0823 17.135 25.2288C16.9885 25.3753 16.9062 25.574 16.9062 25.7812C16.9062 25.9885 16.9885 26.1872 17.135 26.3337C17.2815 26.4802 17.4802 26.5625 17.6874 26.5625H29.1874C29.3946 26.5625 29.5933 26.4802 29.7398 26.3337C29.8864 26.1872 29.9687 25.9885 29.9687 25.7812C29.9687 25.574 29.8864 25.3753 29.7398 25.2288C29.5933 25.0823 29.3946 25 29.1874 25H17.6874Z"/>
<path d="M2.34375 26.5625H6.55469C6.76189 26.5625 6.9606 26.4802 7.10711 26.3337C7.25363 26.1872 7.33594 25.9885 7.33594 25.7812C7.33594 25.574 7.25363 25.3753 7.10711 25.2288C6.9606 25.0823 6.76189 25 6.55469 25H3.125V20.3125H3.90625C4.65473 20.3144 5.3869 20.5314 6.01562 20.9375C6.14137 21.0187 6.2878 21.0621 6.4375 21.0625C6.60664 21.0638 6.77162 21.0101 6.90765 20.9096C7.04368 20.809 7.14341 20.6671 7.19185 20.505C7.24029 20.343 7.23483 20.1696 7.17629 20.0109C7.11774 19.8522 7.00927 19.7168 6.86719 19.625C5.98474 19.055 4.95679 18.7512 3.90625 18.75H3.125V9.375H3.90625C5.35665 9.375 6.74765 8.79883 7.77324 7.77324C8.79883 6.74765 9.375 5.35665 9.375 3.90625V3.125H34.375V3.90625C34.375 5.35665 34.9512 6.74765 35.9768 7.77324C37.0023 8.79883 38.3933 9.375 39.8438 9.375H40.625V18.75H39.8438C39.4253 18.7506 39.0084 18.8004 38.6016 18.8984C38.3944 18.9212 38.2047 19.0254 38.0743 19.188C37.9439 19.3507 37.8835 19.5584 37.9062 19.7656C37.929 19.9728 38.0332 20.1625 38.1958 20.2929C38.3585 20.4233 38.5662 20.4837 38.7734 20.4609C38.8331 20.4691 38.8935 20.4691 38.9531 20.4609C39.2435 20.3782 39.5422 20.3284 39.8438 20.3125H40.625V25H38.7578C38.5506 25 38.3519 25.0823 38.2054 25.2288C38.0589 25.3753 37.9766 25.574 37.9766 25.7812C37.9766 25.9885 38.0589 26.1872 38.2054 26.3337C38.3519 26.4802 38.5506 26.5625 38.7578 26.5625H41.4062C41.6134 26.5625 41.8122 26.4802 41.9587 26.3337C42.1052 26.1872 42.1875 25.9885 42.1875 25.7812V2.34375C42.1875 2.13655 42.1052 1.93784 41.9587 1.79132C41.8122 1.64481 41.6134 1.5625 41.4062 1.5625H2.34375C2.13655 1.5625 1.93784 1.64481 1.79132 1.79132C1.64481 1.93784 1.5625 2.13655 1.5625 2.34375V25.7812C1.5625 25.9885 1.64481 26.1872 1.79132 26.3337C1.93784 26.4802 2.13655 26.5625 2.34375 26.5625ZM40.625 7.8125H39.8438C38.8077 7.8125 37.8142 7.40095 37.0816 6.66839C36.349 5.93582 35.9375 4.94225 35.9375 3.90625V3.125H40.625V7.8125ZM7.8125 3.125V3.90625C7.8125 4.94225 7.40095 5.93582 6.66839 6.66839C5.93582 7.40095 4.94225 7.8125 3.90625 7.8125H3.125V3.125H7.8125Z"/>
<path d="M17.9688 43.75H22.6562C22.8635 43.75 23.0622 43.6677 23.2087 43.5212C23.3552 43.3747 23.4375 43.176 23.4375 42.9688C23.4375 42.7615 23.3552 42.5628 23.2087 42.4163C23.0622 42.2698 22.8635 42.1875 22.6562 42.1875H17.9688C17.7615 42.1875 17.5628 42.2698 17.4163 42.4163C17.2698 42.5628 17.1875 42.7615 17.1875 42.9688C17.1875 43.176 17.2698 43.3747 17.4163 43.5212C17.5628 43.6677 17.7615 43.75 17.9688 43.75Z"/>
<path d="M27.3438 45.3125H17.9688C17.7615 45.3125 17.5628 45.3948 17.4163 45.5413C17.2698 45.6878 17.1875 45.8865 17.1875 46.0938C17.1875 46.301 17.2698 46.4997 17.4163 46.6462C17.5628 46.7927 17.7615 46.875 17.9688 46.875H27.3438C27.551 46.875 27.7497 46.7927 27.8962 46.6462C28.0427 46.4997 28.125 46.301 28.125 46.0938C28.125 45.8865 28.0427 45.6878 27.8962 45.5413C27.7497 45.3948 27.551 45.3125 27.3438 45.3125Z"/>
<path d="M13.2812 42.1875H2.34375C2.13655 42.1875 1.93784 42.2698 1.79132 42.4163C1.64481 42.5628 1.5625 42.7615 1.5625 42.9688V47.6562C1.5625 47.8635 1.64481 48.0622 1.79132 48.2087C1.93784 48.3552 2.13655 48.4375 2.34375 48.4375H7.8125C8.0197 48.4375 8.21841 48.3552 8.36493 48.2087C8.51144 48.0622 8.59375 47.8635 8.59375 47.6562C8.59375 47.449 8.51144 47.2503 8.36493 47.1038C8.21841 46.9573 8.0197 46.875 7.8125 46.875H3.125V43.75H12.5V46.875H10.9375C10.7303 46.875 10.5316 46.9573 10.3851 47.1038C10.2386 47.2503 10.1562 47.449 10.1562 47.6562C10.1562 47.8635 10.2386 48.0622 10.3851 48.2087C10.5316 48.3552 10.7303 48.4375 10.9375 48.4375H13.2812C13.4885 48.4375 13.6872 48.3552 13.8337 48.2087C13.9802 48.0622 14.0625 47.8635 14.0625 47.6562V42.9688C14.0625 42.7615 13.9802 42.5628 13.8337 42.4163C13.6872 42.2698 13.4885 42.1875 13.2812 42.1875Z"/>
</svg>
