<svg width="50" height="45" viewBox="0 0 50 45" fill="#000" xmlns="http://www.w3.org/2000/svg">
<g clip-path="url(#clip0)">
<path fill-rule="evenodd" clip-rule="evenodd" d="M43.1277 34.2908C44.1102 34.0359 46.3878 33.6275 47.3553 33.8403C48.7178 33.9616 49.5377 34.1874 49.8102 34.5166C50.3877 35.373 49.5228 38.3742 49.1278 39.3518C48.7803 40.2131 47.1528 42.9761 46.3103 42.9761C46.0528 42.9761 45.8577 42.788 45.9902 42.4365C49.0827 35.2368 47.7002 35.4268 43.1277 35.8203C42.5377 35.8921 40.3727 36.3252 40.6277 35.8203C40.6277 35.2239 42.5302 34.4442 43.1277 34.2908ZM21.5827 21.1963C21.5827 22.367 21.8777 23.3047 22.4677 24.0076C24.1577 26.0222 27.2427 24.9434 28.5377 22.5476C29.2502 21.325 29.9903 18.9361 29.9903 15.8399C27.4903 15.8399 26.6953 15.9611 25.7878 16.2012C23.1203 16.9511 21.5827 18.6174 21.5827 21.1963ZM13.7652 22.0972C13.7652 17.8798 16.0353 14.9247 19.5378 13.457C22.6303 12.1527 26.8978 11.7957 29.9903 11.6101C29.9903 7.9026 29.4828 4.94997 25.5828 4.94997C24.3303 4.94997 22.0927 6.33826 21.5827 8.65236C21.4602 9.25131 21.1577 9.68264 20.6727 9.77175L15.4452 9.18459C14.8127 9.03609 14.5677 8.68979 14.7177 8.09084C15.7727 2.62611 20.3628 0.292067 25.5828 1.66385e-05C28.0828 1.66385e-05 31.8627 -0.0315583 34.8102 2.65627C37.9952 5.81184 37.4903 9.78606 37.4903 20.072C37.4903 22.5421 37.5277 22.7791 39.2177 24.9744C39.5577 25.4793 39.5877 25.9606 39.0927 26.3269C36.5777 28.4876 35.2102 29.6558 34.9977 29.8364C34.6327 30.1062 34.1903 30.1347 33.6753 29.9243C31.4378 28.026 31.9753 28.1411 30.5828 26.416C27.7603 29.4602 25.5427 30.2869 21.7652 30.2869C17.2752 30.2869 13.7652 27.5124 13.7652 22.0972ZM0.810266 34.8743C8.38527 39.2253 16.6277 41.4014 25.5377 41.4014C31.4752 41.4014 37.3402 40.3056 43.1277 38.1152C44.0052 37.7687 44.9302 37.0931 45.4677 37.8455C45.7252 38.2068 45.6428 38.536 45.2178 38.8355C39.6103 42.8449 31.7953 45 24.9903 45C15.3628 45 6.79776 41.4633 0.26526 35.6397C-0.31724 35.162 0.147766 34.4585 0.810266 34.8743Z"/>
</g>
<defs>
<clipPath id="clip0">
<rect width="50" height="45"/>
</clipPath>
</defs>
</svg>
